…
bam_stats$flag %>% unique()
```

    ##  [1] "in total"                            "secondary"                          
    ##  [3] "supplementary"                       "duplicates"                         
    ##  [5] "mapped"                              "paired in sequencing"               
    ##  [7] "read1"                               "read2"                              
    ##  [9] "properly paired"                     "with itself and mate mapped"        
    ## [11] "singletons"                          "with mate mapped to a different chr"

``` r
bam_stats
```

    ## # A tibble: 117 x 3
    ##    prefix  n_reads flag                       
    ##    <chr>     <dbl> <chr>                      
    ##  1 round1 90355204 in total                   
    ##  2 round1        0 secondary                  
    ##  3 round1        0 supplementary              
    ##  4 round1        0 duplicates                 
    ##  5 round1 90355204 mapped                     
    ##  6 round1 90355204 paired in sequencing       
    ##  7 round1 45177602 read1                      
    ##  8 round1 45177602 read2                      
    ##  9 round1 90355204 properly paired            
    ## 10 round1 90355204 with itself and mate mapped
    ## # … with 107 more rows
…
