…
    ## Rows: 621162 Columns: 9

    ## ── Column specification ────────────────────────────────────────────────────────
    ## Delimiter: "\t"
    ## chr (7): contig, softw, type, score, strang, point, description
    ## dbl (2): start, end

    ## 
    ## ℹ Use `spec()` to retrieve the full column specification for this data.
    ## ℹ Specify the column types or set `show_col_types = FALSE` to quiet this message.

    ## Warning: One or more parsing issues, see `problems()` for details

    ## # A tibble: 117 × 8
    ##      Chr    Start      End gene_id Clade    Type  Shape    color 
    ##    <int>    <dbl>    <dbl> <chr>   <chr>    <chr> <chr>    <chr> 
    ##  1     1   261077   262149 jg28468 Alpha-1  Alpha circle   6D0026
    ##  2     1  6732687  6733298 jg30256 Alpha-6  Alpha circle   6D0026
    ##  3     1  7292912  7295391 jg30399 Delta-3  Delta circle   FFC1AD
    ##  4     1  8742124  8744039 jg30773 Delta-4  Delta circle   FFC1AD
    ##  5     1  8937745  8940097 jg30819 Gamma-8  Gamma circle   FF755F
    ##  6     1 10110325 10113804 jg31128 MIKC-6   MIKC  triangle A7CEE2
    ##  7     1 10596322 10598463 jg31253 MIKC-3   MIKC  triangle A7CEE2
    ##  8     1 11714387 11714941 jg31539 Alpha-7a Alpha circle   6D0026
    ##  9     1 12555059 12556742 jg31720 MIKC-38  MIKC  triangle A7CEE2
    ## 10     1 12821754 12822650 jg31786 Gamma-2b Gamma circle   FF755F
    ## # … with 107 more rows
…
    ## Rows: 633235 Columns: 9

    ## ── Column specification ────────────────────────────────────────────────────────
    ## Delimiter: "\t"
    ## chr (7): contig, softw, type, score, strang, point, description
    ## dbl (2): start, end

    ## 
    ## ℹ Use `spec()` to retrieve the full column specification for this data.
    ## ℹ Specify the column types or set `show_col_types = FALSE` to quiet this message.

    ## # A tibble: 109 × 8
    ##      Chr    Start      End gene_id Clade    Type  Shape    color 
    ##    <int>    <dbl>    <dbl> <chr>   <chr>    <chr> <chr>    <chr> 
    ##  1     1   293395   294504 jg7901  Alpha-1  Alpha circle   6D0026
    ##  2     1  7489742  7490383 jg9755  Alpha-6  Alpha circle   6D0026
    ##  3     1  8124230  8126643 jg9917  Delta-3  Delta circle   FFC1AD
    ##  4     1  9912372  9914731 jg10309 Delta-4  Delta circle   FFC1AD
    ##  5     1 10111237 10111728 jg10353 Gamma-8  Gamma circle   FF755F
    ##  6     1 11501768 11505388 jg10657 MIKC-6   MIKC  triangle A7CEE2
    ##  7     1 12055078 12057230 jg10776 MIKC-3   MIKC  triangle A7CEE2
    ##  8     1 13513402 13513956 jg11086 Alpha-7a Alpha circle   6D0026
    ##  9     1 14512834 14513742 jg11270 Gamma-2b Gamma circle   FF755F
    ## 10     1 14523666 14524667 jg11273 Gamma-2a Gamma circle   FF755F
    ## # … with 99 more rows
…
