…
    ## Rows: 70235 Columns: 4

    ## ── Column specification ────────────────────────────────────────────────────────
    ## Delimiter: "\t"
    ## chr (2): chr, gene
    ## dbl (2): start, end

    ## 
    ## ℹ Use `spec()` to retrieve the full column specification for this data.
    ## ℹ Specify the column types or set `show_col_types = FALSE` to quiet this message.

    ## # A tibble: 49 × 7
    ##    Species_1  Start_1    End_1 Species_2  Start_2    End_2 fill  
    ##        <int>    <dbl>    <dbl>     <int>    <dbl>    <dbl> <chr> 
    ##  1         1   261077   262149         1   293395   294504 DB4348
    ##  2         1  6732687  6733298         1  7489742  7490383 DB4348
    ##  3         1  7292912  7295391         1  8124230  8126643 A37945
    ##  4         1  8742124  8744039         1  9912372  9914731 A37945
    ##  5         1  8937745  8940097         1 10111237 10111728 3E5733
    ##  6         1 11714387 11714941         1 13513402 13513956 DB4348
    ##  7         1 18685305 18685950         1 24438323 24438964 DB4348
    ##  8         2 15422166 15424049         1  9912372  9914731 A37945
    ##  9         2  9640114  9640767         2 13249123 13249770 3E5733
    ## 10         2  9650059  9650773         2 13257811 13258775 DB4348
    ## # … with 39 more rows
…
