…
    ## # A tibble: 1 x 4
    ## # Groups:   query [1]
    ##   query          target          n sum_length
    ##   <chr>          <chr>       <int>      <dbl>
    ## 1 ChrM_Athaliana scaffold_10    54     304534
    ## 
    ## $arenosa_ordered.softmasked_scaffold_10_arenosa_ordered
    ## # A tibble: 1 x 4
    ## # Groups:   query [1]
    ##   query     target          n sum_length
    ##   <chr>     <chr>       <int>      <dbl>
    ## 1 scaf_10_M scaffold_10     1     363047
    ## 
    ## $p_h_ctg_ChrM_Athaliana_447_TAIR10.fa
    ## # A tibble: 23 x 4
    ## # Groups:   query [1]
    ##    query          target      n sum_length
    ##    <chr>          <chr>   <int>      <dbl>
    ##  1 ChrM_Athaliana 000091F     6       4759
    ##  2 ChrM_Athaliana 000024F     2       3710
    ##  3 ChrM_Athaliana 000080F     5       3453
    ##  4 ChrM_Athaliana 000087F     4       2890
    ##  5 ChrM_Athaliana 000090F     4       2890
    ##  6 ChrM_Athaliana 000094F     4       2890
    ##  7 ChrM_Athaliana 000118F     4       2890
    ##  8 ChrM_Athaliana 000248F     4       2890
    ##  9 ChrM_Athaliana 000083F     3       2380
    ## 10 ChrM_Athaliana 000084F     3       2380
    ## # … with 13 more rows
    ## 
    ## $p_h_ctg_scaffold_10_arenosa_ordered
    ## # A tibble: 24 x 4
    ## # Groups:   query [1]
    ##    query     target      n sum_length
    ##    <chr>     <chr>   <int>      <dbl>
    ##  1 scaf_10_M 000024F     5       5587
    ##  2 scaf_10_M 000091F     6       4724
    ##  3 scaf_10_M 000087F     6       3832
    ##  4 scaf_10_M 000090F     5       3371
    ##  5 scaf_10_M 000094F     5       3255
    ##  6 scaf_10_M 000089F     4       2872
    ##  7 scaf_10_M 000248F     4       2872
    ##  8 scaf_10_M 000083F     3       2362
    ##  9 scaf_10_M 000084F     3       2362
    ## 10 scaf_10_M 000088F     3       2362
    ## # … with 14 more rows
…
